{

  "type": "array",
  "items": {
      "type": "object",
      "additionalProperties": ["type", "attributes"],
      "properties": {
          "id": {
              "type": "string"
          },
          "attributes": {
            "description": {
                "tpye": "string"
            },
            "price": {
                "type": "string"
            },
            "required": [ "description", "price" ]
         }
      },
      "required": [
          "id", "attributes"
      ]
  }
}
